^C:\USERS\RAMI\SOURCE\REPOS\IS 375\RAMILUKATA_ASSIGNMENT5\RAMILUKATA_ASSIGNMENT5\APP.RC
C:\USERS\RAMI\SOURCE\REPOS\IS 375\RAMILUKATA_ASSIGNMENT5\RAMILUKATA_ASSIGNMENT5\DEBUG\APP.RES
^C:\USERS\RAMI\SOURCE\REPOS\PROGRAMMING\RAMILUKATA_ASSIGNMENT5\RAMILUKATA_ASSIGNMENT5\APP.RC
C:\USERS\RAMI\SOURCE\REPOS\PROGRAMMING\RAMILUKATA_ASSIGNMENT5\RAMILUKATA_ASSIGNMENT5\DEBUG\APP.RES
