^C:\USERS\RAMI\SOURCE\REPOS\IS 375\RAMILUKATA_ASSIGNMENT1\RAMILUKATA_ASSIGNMENT1\STDAFX.CPP
C:\USERS\RAMI\SOURCE\REPOS\IS 375\RAMILUKATA_ASSIGNMENT1\RAMILUKATA_ASSIGNMENT1\RELEASE\RAMILUKATA_ASSIGNMENT1.PCH.CODEANALYSIS
C:\USERS\RAMI\SOURCE\REPOS\IS 375\RAMILUKATA_ASSIGNMENT1\RAMILUKATA_ASSIGNMENT1\RELEASE\VC120.PDB
C:\USERS\RAMI\SOURCE\REPOS\IS 375\RAMILUKATA_ASSIGNMENT1\RAMILUKATA_ASSIGNMENT1\RELEASE\RAMILUKATA_ASSIGNMENT1.PCH.CODEANALYSISAST
C:\USERS\RAMI\SOURCE\REPOS\IS 375\RAMILUKATA_ASSIGNMENT1\RAMILUKATA_ASSIGNMENT1\RELEASE\STDAFX.NATIVECODEANALYSIS.XML
C:\USERS\RAMI\SOURCE\REPOS\IS 375\RAMILUKATA_ASSIGNMENT1\RAMILUKATA_ASSIGNMENT1\RELEASE\STDAFX.OBJ
^C:\USERS\RAMI\SOURCE\REPOS\IS 375\RAMILUKATA_ASSIGNMENT1\RAMILUKATA_ASSIGNMENT1\RAMILUKATA_ASSIGNMENT1.CPP
C:\USERS\RAMI\SOURCE\REPOS\IS 375\RAMILUKATA_ASSIGNMENT1\RAMILUKATA_ASSIGNMENT1\RELEASE\VC120.PDB
C:\USERS\RAMI\SOURCE\REPOS\IS 375\RAMILUKATA_ASSIGNMENT1\RAMILUKATA_ASSIGNMENT1\RELEASE\RAMILUKATA_ASSIGNMENT1.NATIVECODEANALYSIS.XML
C:\USERS\RAMI\SOURCE\REPOS\IS 375\RAMILUKATA_ASSIGNMENT1\RAMILUKATA_ASSIGNMENT1\RELEASE\RAMILUKATA_ASSIGNMENT1.OBJ
