^C:\USERS\RAMI\SOURCE\REPOS\IS 375\RAMILUKATA_ASSIGNMENT3\RAMILUKATA_ASSIGNMENT3\STDAFX.CPP
C:\USERS\RAMI\SOURCE\REPOS\IS 375\RAMILUKATA_ASSIGNMENT3\RAMILUKATA_ASSIGNMENT3\DEBUG\RAMILUKATA_ASSIGNMENT3.PCH
C:\USERS\RAMI\SOURCE\REPOS\IS 375\RAMILUKATA_ASSIGNMENT3\RAMILUKATA_ASSIGNMENT3\DEBUG\VC120.PDB
C:\USERS\RAMI\SOURCE\REPOS\IS 375\RAMILUKATA_ASSIGNMENT3\RAMILUKATA_ASSIGNMENT3\DEBUG\STDAFX.OBJ
^C:\USERS\RAMI\SOURCE\REPOS\IS 375\RAMILUKATA_ASSIGNMENT3\RAMILUKATA_ASSIGNMENT3\ASSEMBLYINFO.CPP|C:\USERS\RAMI\SOURCE\REPOS\IS 375\RAMILUKATA_ASSIGNMENT3\RAMILUKATA_ASSIGNMENT3\RAMILUKATA_ASSIGNMENT3.CPP
C:\USERS\RAMI\SOURCE\REPOS\IS 375\RAMILUKATA_ASSIGNMENT3\RAMILUKATA_ASSIGNMENT3\DEBUG\VC120.PDB
C:\USERS\RAMI\SOURCE\REPOS\IS 375\RAMILUKATA_ASSIGNMENT3\RAMILUKATA_ASSIGNMENT3\DEBUG\RAMILUKATA_ASSIGNMENT3.OBJ
C:\USERS\RAMI\SOURCE\REPOS\IS 375\RAMILUKATA_ASSIGNMENT3\RAMILUKATA_ASSIGNMENT3\DEBUG\ASSEMBLYINFO.OBJ
^C:\USERS\RAMI\SOURCE\REPOS\IS 375\RAMILUKATA_ASSIGNMENT3\RAMILUKATA_ASSIGNMENT3\ASSEMBLYINFO.CPP
C:\USERS\RAMI\SOURCE\REPOS\IS 375\RAMILUKATA_ASSIGNMENT3\RAMILUKATA_ASSIGNMENT3\DEBUG\VC120.PDB
^C:\USERS\RAMI\APPDATA\LOCAL\TEMP\.NETFRAMEWORK,VERSION=V4.5.ASSEMBLYATTRIBUTES.CPP
C:\USERS\RAMI\SOURCE\REPOS\IS 375\RAMILUKATA_ASSIGNMENT3\RAMILUKATA_ASSIGNMENT3\DEBUG\VC120.PDB
C:\USERS\RAMI\SOURCE\REPOS\IS 375\RAMILUKATA_ASSIGNMENT3\RAMILUKATA_ASSIGNMENT3\DEBUG\.NETFRAMEWORK,VERSION=V4.5.ASSEMBLYATTRIBUTES.OBJ
^C:\USERS\RAMI\SOURCE\REPOS\IS 375\RAMILUKATA_ASSIGNMENT3\RAMILUKATA_ASSIGNMENT3\RAMILUKATA_ASSIGNMENT3.CPP
C:\USERS\RAMI\SOURCE\REPOS\IS 375\RAMILUKATA_ASSIGNMENT3\RAMILUKATA_ASSIGNMENT3\DEBUG\VC120.PDB
C:\USERS\RAMI\SOURCE\REPOS\IS 375\RAMILUKATA_ASSIGNMENT3\RAMILUKATA_ASSIGNMENT3\DEBUG\RAMILUKATA_ASSIGNMENT3.OBJ
