^C:\USERS\RAMI\SOURCE\REPOS\IS 375\RAMILUKATA_ASSIGNMENT10\EXTDLLEXAMPLE\DEBUG\DLLMAIN.OBJ|C:\USERS\RAMI\SOURCE\REPOS\IS 375\RAMILUKATA_ASSIGNMENT10\EXTDLLEXAMPLE\DEBUG\ELEMENTS.OBJ|C:\USERS\RAMI\SOURCE\REPOS\IS 375\RAMILUKATA_ASSIGNMENT10\EXTDLLEXAMPLE\DEBUG\EXTDLLEXAMPLE.OBJ|C:\USERS\RAMI\SOURCE\REPOS\IS 375\RAMILUKATA_ASSIGNMENT10\EXTDLLEXAMPLE\DEBUG\EXTDLLEXAMPLE.RES|C:\USERS\RAMI\SOURCE\REPOS\IS 375\RAMILUKATA_ASSIGNMENT10\EXTDLLEXAMPLE\DEBUG\STDAFX.OBJ
C:\USERS\RAMI\SOURCE\REPOS\IS 375\RAMILUKATA_ASSIGNMENT10\EXTDLLEXAMPLE\DEBUG\EXTDLLEXAMPLE.RES
C:\USERS\RAMI\SOURCE\REPOS\IS 375\RAMILUKATA_ASSIGNMENT10\EXTDLLEXAMPLE\DEBUG\DLLMAIN.OBJ
C:\USERS\RAMI\SOURCE\REPOS\IS 375\RAMILUKATA_ASSIGNMENT10\EXTDLLEXAMPLE\DEBUG\ELEMENTS.OBJ
C:\USERS\RAMI\SOURCE\REPOS\IS 375\RAMILUKATA_ASSIGNMENT10\EXTDLLEXAMPLE\DEBUG\EXTDLLEXAMPLE.OBJ
C:\USERS\RAMI\SOURCE\REPOS\IS 375\RAMILUKATA_ASSIGNMENT10\EXTDLLEXAMPLE\DEBUG\STDAFX.OBJ
C:\PROGRAM FILES (X86)\MICROSOFT VISUAL STUDIO 12.0\VC\INCLUDE\MANIFEST\DPIAWARE.MANIFEST
C:\WINDOWS\GLOBALIZATION\SORTING\SORTDEFAULT.NLS
C:\PROGRAM FILES (X86)\MICROSOFT VISUAL STUDIO 12.0\VC\ATLMFC\LIB\MFC120UD.LIB
C:\PROGRAM FILES (X86)\MICROSOFT VISUAL STUDIO 12.0\VC\ATLMFC\LIB\MFCS120UD.LIB
C:\PROGRAM FILES (X86)\MICROSOFT VISUAL STUDIO 12.0\VC\LIB\MSVCRTD.LIB
C:\PROGRAM FILES (X86)\WINDOWS KITS\8.1\LIB\WINV6.3\UM\X86\KERNEL32.LIB
C:\PROGRAM FILES (X86)\WINDOWS KITS\8.1\LIB\WINV6.3\UM\X86\USER32.LIB
C:\PROGRAM FILES (X86)\WINDOWS KITS\8.1\LIB\WINV6.3\UM\X86\GDI32.LIB
C:\PROGRAM FILES (X86)\WINDOWS KITS\8.1\LIB\WINV6.3\UM\X86\MSIMG32.LIB
C:\PROGRAM FILES (X86)\WINDOWS KITS\8.1\LIB\WINV6.3\UM\X86\COMDLG32.LIB
C:\PROGRAM FILES (X86)\WINDOWS KITS\8.1\LIB\WINV6.3\UM\X86\WINSPOOL.LIB
C:\PROGRAM FILES (X86)\WINDOWS KITS\8.1\LIB\WINV6.3\UM\X86\ADVAPI32.LIB
C:\PROGRAM FILES (X86)\WINDOWS KITS\8.1\LIB\WINV6.3\UM\X86\SHELL32.LIB
C:\PROGRAM FILES (X86)\WINDOWS KITS\8.1\LIB\WINV6.3\UM\X86\COMCTL32.LIB
C:\PROGRAM FILES (X86)\WINDOWS KITS\8.1\LIB\WINV6.3\UM\X86\SHLWAPI.LIB
C:\PROGRAM FILES (X86)\WINDOWS KITS\8.1\LIB\WINV6.3\UM\X86\UXTHEME.LIB
C:\PROGRAM FILES (X86)\WINDOWS KITS\8.1\LIB\WINV6.3\UM\X86\WINDOWSCODECS.LIB
C:\PROGRAM FILES (X86)\WINDOWS KITS\8.1\LIB\WINV6.3\UM\X86\UUID.LIB
C:\PROGRAM FILES (X86)\MICROSOFT VISUAL STUDIO 12.0\VC\ATLMFC\LIB\ATLS.LIB
C:\PROGRAM FILES (X86)\WINDOWS KITS\8.1\LIB\WINV6.3\UM\X86\OLE32.LIB
C:\PROGRAM FILES (X86)\WINDOWS KITS\8.1\LIB\WINV6.3\UM\X86\OLEAUT32.LIB
C:\PROGRAM FILES (X86)\WINDOWS KITS\8.1\LIB\WINV6.3\UM\X86\OLEDLG.LIB
C:\PROGRAM FILES (X86)\WINDOWS KITS\8.1\LIB\WINV6.3\UM\X86\URLMON.LIB
C:\PROGRAM FILES (X86)\WINDOWS KITS\8.1\LIB\WINV6.3\UM\X86\ODBC32.LIB
C:\PROGRAM FILES (X86)\WINDOWS KITS\8.1\LIB\WINV6.3\UM\X86\ODBCCP32.LIB
C:\PROGRAM FILES (X86)\WINDOWS KITS\8.1\LIB\WINV6.3\UM\X86\CRYPT32.LIB
C:\PROGRAM FILES (X86)\MICROSOFT VISUAL STUDIO 12.0\VC\LIB\OLDNAMES.LIB
C:\PROGRAM FILES (X86)\MICROSOFT VISUAL STUDIO 12.0\VC\LIB\MSVCPRTD.LIB
C:\PROGRAM FILES (X86)\WINDOWS KITS\8.1\LIB\WINV6.3\UM\X86\WININET.LIB
C:\PROGRAM FILES (X86)\WINDOWS KITS\8.1\LIB\WINV6.3\UM\X86\WS2_32.LIB
C:\PROGRAM FILES (X86)\WINDOWS KITS\8.1\LIB\WINV6.3\UM\X86\MSWSOCK.LIB
C:\USERS\RAMI\SOURCE\REPOS\IS 375\RAMILUKATA_ASSIGNMENT10\EXTDLLEXAMPLE\EXTDLLEXAMPLE.DEF
C:\WINDOWS\SYSTEM32\TZRES.DLL
C:\PROGRAM FILES (X86)\MICROSOFT VISUAL STUDIO 12.0\VC\BIN\1033\LINKUI.DLL
C:\PROGRAM FILES (X86)\WINDOWS KITS\8.1\BIN\X86\MT.EXE
C:\PROGRAM FILES (X86)\WINDOWS KITS\8.1\BIN\X86\RC.EXE
C:\PROGRAM FILES (X86)\MICROSOFT VISUAL STUDIO 12.0\VC\BIN\CVTRES.EXE
